[gd_scene load_steps=6 format=2]

[ext_resource path="res://assets/author/Veless character design clean.png" type="Texture" id=1]
[ext_resource path="res://src/Actors/Author.gd" type="Script" id=2]
[ext_resource path="res://src/Dialogics/FinishDialogic.tscn" type="PackedScene" id=3]

[sub_resource type="RectangleShape2D" id=1]
extents = Vector2( 21.9047, 24 )

[sub_resource type="RectangleShape2D" id=2]
extents = Vector2( 192, 25 )

[node name="Author" type="KinematicBody2D"]
collision_layer = 0
collision_mask = 0
script = ExtResource( 2 )
finish_dialog_scene = ExtResource( 3 )

[node name="CollisionShape2D" type="CollisionShape2D" parent="."]
position = Vector2( -2.09525, 24 )
shape = SubResource( 1 )

[node name="Sprite" type="Sprite" parent="."]
position = Vector2( 0, 24 )
scale = Vector2( 0.5, 0.5 )
texture = ExtResource( 1 )
flip_h = true

[node name="FinishDetector" type="Area2D" parent="."]

[node name="CollisionShape2D" type="CollisionShape2D" parent="FinishDetector"]
position = Vector2( 0, 25 )
shape = SubResource( 2 )

[connection signal="body_entered" from="FinishDetector" to="." method="_on_FinishDetector_body_entered"]
